
<svg width="800px" height="800px" viewBox="0 0 512 512" xmlns="http://www.w3.org/2000/svg" fill="#000000">

<g id="SVGRepo_bgCarrier" stroke-width="0"/>

<g id="SVGRepo_tracerCarrier" stroke-linecap="round" stroke-linejoin="round"/>

<g id="SVGRepo_iconCarrier"> <defs> <style>.cls-1{fill:none;stroke:#ffffff;stroke-linecap:round;stroke-linejoin:round;stroke-width:20px;}</style> </defs> <g data-name="Layer 2" id="Layer_2"> <g data-name="E408, Success, Media, media player, multimedia" id="E408_Success_Media_media_player_multimedia"> <circle class="cls-1" cx="256" cy="256" r="246"/> <polyline class="cls-1" points="115.54 268.77 200.67 353.9 396.46 158.1"/> </g> </g> </g>

</svg>