<svg viewBox="0 0 24 24" fill="none" xmlns="http://www.w3.org/2000/svg">
    <g id="SVGRepo_bgCarrier" stroke-width="0"></g>
    <g id="SVGRepo_tracerCarrier" stroke-linecap="round" stroke-linejoin="round"></g>
    <g id="SVGRepo_iconCarrier">
        <path opacity="0.15" d="M5 21H19V9H15C13.8954 9 13 8.10457 13 7V3H5V21Z" fill="#ffffff"></path>
        <path d="M15 12L10.8 16L9 14.2857M13 3H5V21H19V9M13 3H14L19 8V9M13 3V7C13 8 14 9 15 9H19"
            stroke="#ffffff" stroke-width="1.5" stroke-linecap="round" stroke-linejoin="round"></path>
    </g>
</svg>