<svg width="12" height="14" viewBox="0 0 12 14" fill="none" xmlns="http://www.w3.org/2000/svg">
<path d="M6.00004 11V7M6.00004 7L4.00004 8.33333M6.00004 7L8.00004 8.33333M6.66671 1.00058C6.60304 1 6.53156 1 6.44985 1H3.46684C2.7201 1 2.34645 1 2.06124 1.14532C1.81036 1.27316 1.60653 1.47698 1.4787 1.72786C1.33337 2.01308 1.33337 2.38673 1.33337 3.13346V10.8668C1.33337 11.6135 1.33337 11.9867 1.4787 12.2719C1.60653 12.5228 1.81036 12.727 2.06124 12.8548C2.34618 13 2.71938 13 3.46467 13L8.53543 13C9.28071 13 9.65337 13 9.9383 12.8548C10.1892 12.727 10.3937 12.5228 10.5215 12.2719C10.6667 11.987 10.6667 11.6143 10.6667 10.8691V5.21712C10.6667 5.13531 10.6667 5.06374 10.6661 5M6.66671 1.00058C6.85713 1.00231 6.9776 1.00923 7.0926 1.03684C7.22865 1.0695 7.35861 1.12351 7.47791 1.19661C7.61242 1.27904 7.72792 1.39455 7.95837 1.625L10.042 3.70866C10.2726 3.93926 10.3873 4.05424 10.4697 4.1888C10.5428 4.30809 10.5969 4.43817 10.6296 4.57422C10.6572 4.68917 10.6643 4.80967 10.6661 5M6.66671 1.00058V2.86667C6.66671 3.6134 6.66671 3.98651 6.81203 4.27173C6.93986 4.52261 7.14369 4.72699 7.39457 4.85482C7.67951 5 8.05271 5 8.79798 5H10.6661M10.6661 5H10.6668" stroke="white" stroke-width="2" stroke-linecap="round" stroke-linejoin="round"/>
</svg>
